<?xml version="1.0" encoding="UTF-8" standalone="no"?>
<!-- Created with Inkscape (http://www.inkscape.org/) -->

<svg
   xmlns:dc="http://purl.org/dc/elements/1.1/"
   xmlns:cc="http://creativecommons.org/ns#"
   xmlns:rdf="http://www.w3.org/1999/02/22-rdf-syntax-ns#"
   xmlns:svg="http://www.w3.org/2000/svg"
   xmlns="http://www.w3.org/2000/svg"
   xmlns:sodipodi="http://sodipodi.sourceforge.net/DTD/sodipodi-0.dtd"
   xmlns:inkscape="http://www.inkscape.org/namespaces/inkscape"
   version="1.1"
   id="svg3955"
   width="300"
   height="300"
   viewBox="0 0 270 270"
   sodipodi:docname="TEC21.svg"
   inkscape:version="0.92.4 (f8dce91, 2019-08-02)">
  <metadata
     id="metadata3961">
    <rdf:RDF>
      <cc:Work
         rdf:about="">
        <dc:format>image/svg+xml</dc:format>
        <dc:type
           rdf:resource="http://purl.org/dc/dcmitype/StillImage" />
        <dc:title></dc:title>
      </cc:Work>
    </rdf:RDF>
  </metadata>
  <defs
     id="defs3959" />
  <sodipodi:namedview
     pagecolor="#ffffff"
     bordercolor="#666666"
     borderopacity="1"
     objecttolerance="10"
     gridtolerance="10"
     guidetolerance="10"
     inkscape:pageopacity="0"
     inkscape:pageshadow="2"
     inkscape:window-width="1366"
     inkscape:window-height="692"
     id="namedview3957"
     showgrid="false"
     showguides="true"
     inkscape:guide-bbox="true"
     fit-margin-top="-0.1"
     fit-margin-left="0"
     fit-margin-right="0"
     fit-margin-bottom="0"
     scale-x="0.9"
     inkscape:zoom="0.77938881"
     inkscape:cx="44.515756"
     inkscape:cy="256.66954"
     inkscape:window-x="0"
     inkscape:window-y="0"
     inkscape:window-maximized="1"
     inkscape:current-layer="g5945">
    <sodipodi:guide
       position="-6.8652581,127.01613"
       orientation="1,0"
       id="guide4798"
       inkscape:locked="false" />
  </sodipodi:namedview>
  <text
     xml:space="preserve"
     style="font-style:normal;font-weight:normal;font-size:40px;line-height:1.25;font-family:sans-serif;letter-spacing:0px;word-spacing:0px;fill:#000000;fill-opacity:1;stroke:none"
     x="194.54602"
     y="279.57446"
     id="text4796"><tspan
       sodipodi:role="line"
       id="tspan4794"
       x="194.54602"
       y="279.57446">             </tspan></text>
  <g
     id="g5945"
     transform="translate(-5.958,110.82447)">
    <g
       id="g5955"
       transform="translate(27.401299,-84.719169)">
      <text
         xml:space="preserve"
         style="font-style:normal;font-variant:normal;font-weight:bold;font-stretch:normal;font-size:38.80072403px;line-height:1.25;font-family:FreeSans;-inkscape-font-specification:'FreeSans Bold';letter-spacing:0px;word-spacing:0px;fill:#000000;fill-opacity:1;stroke:none;stroke-width:0.97001809"
         x="6.6862898"
         y="86.527504"
         id="text3967"
         transform="scale(0.97001829,1.0309084)"><tspan
           sodipodi:role="line"
           x="6.6862898"
           y="86.527504"
           id="tspan3969"
           style="font-style:normal;font-variant:normal;font-weight:bold;font-stretch:normal;font-size:21.33333397px;font-family:FreeSans;-inkscape-font-specification:'FreeSans Bold';letter-spacing:1.53999996px;word-spacing:0px;stroke-width:0.97001809"
           dx="-0.0097001828">SERVICIO SOCIAL</tspan></text>
      <g
         id="g5935"
         transform="translate(-54.329298,-304.96697)">
        <path
           inkscape:connector-curvature="0"
           id="path5920"
           d="m 74.349798,435.84422 v -21.09375 h -7.03125 -7.03125 v -6.35081 -6.3508 h 20.413307 20.413305 v 6.3508 6.35081 h -6.123991 -6.123992 v 21.09375 21.09375 h -7.258064 -7.258065 z"
           style="fill:#308fcd;fill-opacity:1;stroke-width:0.45362905" />
        <path
           inkscape:connector-curvature="0"
           id="path5922"
           d="m 107.46472,429.49341 v -27.44455 h 16.33064 16.33065 v 5.44354 5.44355 h -5.37511 c -2.95631,0 -6.91614,0.13027 -8.79963,0.28948 l -3.42452,0.28948 -0.29814,2.78398 c -0.30992,2.89397 0.21532,6.35352 1.09901,7.23876 0.32673,0.32732 3.28721,0.56695 8.20122,0.66386 l 7.68991,0.15164 v 4.72487 4.72487 h -7.00172 c -3.85094,0 -7.51964,0.19691 -8.15265,0.43758 -0.67636,0.25715 -1.29645,0.95859 -1.50383,1.70111 -0.35747,1.27995 -0.36518,8.20688 -0.01,8.56253 0.10632,0.10633 4.30832,0.32611 9.33777,0.48841 l 9.14447,0.2951 v 5.82517 5.82518 h -16.78428 -16.78427 z"
           style="fill:#308fcd;fill-opacity:1;stroke-width:0.45362905" />
        <path
           inkscape:connector-curvature="0"
           id="path5924"
           d="m 166.89012,455.8363 c -6.54075,-1.81649 -13.37951,-7.59226 -16.42041,-13.86809 -5.35061,-11.04264 -3.39356,-24.11505 4.84727,-32.37813 5.67675,-5.69207 10.12282,-7.28809 19.53629,-7.01301 5.85086,0.17098 6.03234,0.20768 9.54742,1.93084 6.28954,3.08325 12.94427,10.89127 14.06699,16.50485 0.26289,1.31442 0.18684,1.40635 -1.41138,1.70617 -0.92908,0.1743 -3.53977,0.21139 -5.80155,0.0824 l -4.11233,-0.23447 -2.76074,-2.97209 c -3.62608,-3.90366 -6.4983,-5.28741 -10.98771,-5.29353 -6.35542,-0.009 -11.33598,3.94797 -13.39193,10.63877 -0.84605,2.75332 -0.90525,3.46938 -0.46167,5.58413 0.70047,3.33954 2.23612,6.2516 4.48436,8.50374 2.67191,2.67653 4.73457,3.55656 8.82102,3.76344 4.02321,0.20367 6.18076,-0.54607 9.43039,-3.27704 3.38258,-2.84268 3.90758,-2.98965 10.67968,-2.98965 h 6.15107 l -2.10492,4.19607 c -1.69395,3.37681 -2.82408,4.90668 -5.78832,7.83565 -2.02588,2.00177 -4.73989,4.20066 -6.03115,4.88643 -5.07547,2.69547 -13.32042,3.7743 -18.29238,2.39349 z"
           style="fill:#308fcd;fill-opacity:1;stroke-width:0.45362905" />
        <path
           inkscape:connector-curvature="0"
           id="path5926"
           d="m 207.65357,456.51091 -4.19119,-0.25339 11.06937,-14.84782 c 6.08815,-8.1663 11.69961,-16.10907 12.46991,-17.65058 1.56159,-3.12501 1.80583,-5.79968 0.75852,-8.30626 -0.80096,-1.91698 -1.8926,-2.51691 -4.57977,-2.51691 -2.78924,0 -4.43631,1.5722 -5.15428,4.91998 -0.28106,1.31051 -0.51101,2.68395 -0.51101,3.05209 0,1.01847 -1.56082,1.4027 -7.14466,1.75879 l -5.10332,0.32545 v -1.83042 c 0,-4.32198 1.90567,-9.77684 4.78668,-13.70156 1.20119,-1.63634 2.40141,-2.59136 4.6444,-3.69559 2.86394,-1.40991 3.29026,-1.48902 8.0241,-1.48902 4.45375,0 5.27773,0.13048 7.54885,1.19539 3.58613,1.68149 6.04534,4.08054 7.76627,7.57625 1.39803,2.83979 1.47869,3.27635 1.47869,8.0031 0,4.67164 -0.0941,5.19807 -1.4351,8.02862 -1.7451,3.68351 -3.82684,6.76229 -8.99388,13.30148 l -3.94287,4.98992 1.74238,0.31408 c 0.9583,0.17274 4.0899,0.32863 6.95911,0.34641 7.80438,0.0484 7.25806,-0.38392 7.25806,5.74322 v 5.16383 l -14.62954,-0.0868 c -8.04624,-0.0478 -16.51557,-0.20085 -18.82072,-0.34022 z"
           style="fill:#b0c536;fill-opacity:1;stroke-width:0.45362905" />
        <path
           inkscape:connector-curvature="0"
           id="path5928"
           d="m 245.64012,451.49442 v -5.44355 h 3.85585 3.85584 v -16.55746 -16.55746 h -3.40221 -3.40222 v -5.44355 -5.44354 h 9.29939 9.2994 v 22.001 22.00101 h 3.85585 3.85584 v 5.44355 5.44355 h -13.60887 -13.60887 z"
           style="fill:#b0c536;fill-opacity:1;stroke-width:0.45362905" />
      </g>
    </g>
  </g>
</svg>
