proyecto_id,estilo_trabajo_id
1,1
2,2
3,1
4,1
5,1
6,2
7,2
8,1
9,1
10,1
11,1
12,1
13,2
14,2
15,2
16,1
17,1
18,2
19,1
20,2
21,2
22,1
23,1
24,1
25,2
26,2
27,1
28,1
29,2
30,1
31,1
32,1
33,2
34,1
35,1
36,2
37,2
38,1
39,2
