privilegio_id,privilegio_nombre,objeto_id,operación_id
1,proyecto_create,1,1
2,proyecto_consult,1,2
3,proyecto_update,1,3
4,proyecto_delete,1,4
5,proyecto_validate,1,6
6,proyecto_register,1,8
7,convenio_upload,2,5
8,convenio_download,2,7
9,convenio_create,2,1
10,convenio_consult,3,2
11,convenio_delete,3,4
12,evaluacion_create,4,1
13,evaluacion_consult,4,2
14,evaluacion_update,4,3
15,evaluacion_delete,4,4
16,evaluacion_answer,4,9
17,acreditacion_consult,5,2
18,acreditacion_delete,5,4
19,acreditacion_upload,5,5
20,acreditacion_dowload,5,7
21,carta_consult,6,2
22,carta_delete,6,4
23,carta_upload,6,5
34,carta_dowload,6,7
35,convenio_plantilla_upload,7,5
36,convenio_plantilla_download,7,7
37,evaluacion_cierre_create,8,1
38,evaluacion_cierre_consult,8,2
39,evaluacion_cierre_delete,8,4
40,evaluacion_cierre_upload,8,5
41,evaluacion_cierre_answer,8,9
42,evaluacion_cierre_download,8,7
43,organización_create,9,1
44,organización_consult,9,2
45,orgaizacion_update,9,3
46,organización_delete,9,4
47,organización_validate,9,6
48,organización_register,9,8
